<?xml version="1.0" encoding="utf-8"?>
<!-- Generator: Adobe Illustrator 16.0.0, SVG Export Plug-In . SVG Version: 6.00 Build 0)  -->
<!DOCTYPE svg PUBLIC "-//W3C//DTD SVG 1.1//EN" "http://www.w3.org/Graphics/SVG/1.1/DTD/svg11.dtd">
<svg version="1.1" id="Layer_1" xmlns="http://www.w3.org/2000/svg" xmlns:xlink="http://www.w3.org/1999/xlink" x="0px" y="0px"
	 width="108px" height="26px" viewBox="0 0 108 26" enable-background="new 0 0 108 26" xml:space="preserve">
<g>
	<path d="M3.62,22.85L10.1,2.9h5.79l6.899,19.949h-5.49l-1.35-4.26H9.92l-1.35,4.26H3.62z M10.79,14.81h4.2l-2.01-7.11
		c-0.03,0-0.09,0-0.12,0L10.79,14.81z"/>
	<path d="M37.399,11.15l5.819,11.7h-5.879l-3.6-7.38l-1.77,2.43v4.95H26.84V2.9h5.129v8.04l5.46-8.04h5.7L37.399,11.15z"/>
	<path d="M45.41,22.85L51.889,2.9h5.79l6.899,19.949h-5.49l-1.35-4.26h-6.03l-1.35,4.26H45.41z M52.579,14.81h4.2l-2.01-7.11
		c-0.03,0-0.09,0-0.12,0L52.579,14.81z"/>
	<path d="M83.869,21.17c-1.68,1.2-4.41,2.04-7.44,2.04c-5.61,0-9.209-3.36-9.209-10.29c0-7.77,4.86-10.379,9.18-10.379
		c2.58,0,5.28,0.69,7.56,3.96l-3.75,2.76c-1.35-1.77-2.52-2.4-3.87-2.4c-2.34,0-3.81,1.95-3.81,5.76c0,3.93,1.17,6.45,4.05,6.45
		c0.66,0,1.65-0.15,2.1-0.36v-6.15h5.19V21.17z"/>
	<path d="M94.34,2.9V15.95c0,2.28,1.17,2.97,2.819,2.97c1.56,0,2.67-0.93,2.67-2.82V2.9h5.159V16.7c0,4.05-3.239,6.51-7.949,6.51
		c-5.189,0-7.86-2.1-7.86-6.959V2.9H94.34z"/>
</g>
</svg>
